{
  "type": "service_account",
  "project_id": "iserveustaging",
  "private_key_id": "7abf6f7a97d7c55d7c9a28778d0bf925ca3780cc",
  "private_key": "-----BEGIN PRIVATE KEY-----\nMIIEvwIBADANBgkqhkiG9w0BAQEFAASCBKkwggSlAgEAAoIBAQCkARWjssvyD1ep\n1yIWWER1mM3Ct+GgXYXjZlgzRUT4ZqaLhnxF8urQ4l/zyUKVKHHlQXCxpUf+xwvQ\ns08xc8eFI624fdn/mU0yu5wwnZoXHA63w7gLNrKCo1BUPlqzHCm9xAHbt3jxu7wJ\nGFB1qGI7mTmjrx3hkdG1KpiSqIbh0420As8bWQvrvvqD+yXdiO4UWpaB/ymReGvM\nfS0L/yaU7iK9PMQYLf62l11RxmqjP2+j774vk6JIq236qOHjt+BGJIRGftyvOQp/\nEdvjwxhZZ10am2LHOy6kM1hPn+LKUpR69vB6sQ8d3HiafYdwG9Ne0C4rEiVRpRXF\nANvP6dVzAgMBAAECggEAOUgPsM9AIFlveuijBT7rGk+2fi4PZh2EJ/qVD8M/5aqk\nvNLKEPxZO3/1l4ZR9RrdPP9wRvu9e6U14TzfihwwMbZWdLuwKm/24KNaWDiTm0K3\neUOownHmQ26bHfFxaGGLyrXtGDqqyXOSp3KQl6eqN7q6wQrm2uQ9ZJNuGrs18SWN\nE7+B63H5tBo+f+LAJef6nFqv/hb3EYnhDYKeIvLXzabrOo7vV6/ZmRz+vL9kQoc0\nGz5eZbQt7hOu11OTlUgA+aseKKG+ytlClbarFKy7bVIP32eDIMZrkv8hmEQNcwjL\nmblWP/0YPu0j2OQ94NNE1qtoYbI61cN1ImEZlHIR8QKBgQDezdYPASzksZIpmIZp\nWRIfMNji9v2shrn5EsE9Va832uVyf9Q2mu9jnYjMYInvFq4+pEH28sRAafvO/paL\niRxv7TFbyCuwL8acljp9UF7XeRR39UnTskqVTbjx1nbjnFTFGgteucPUNkp36c2y\nvqqvu1TUZwsK1X5daMNaBIko9wKBgQC8cINt9PQb4sjTOOEnKPSwSSdru8eFORRb\nPwFkeid1705au8M17z15HD+1wz8cWjkfQYv8Blw8mie/m6la1xx54Txv6rK8Vrym\n9YKE8abdHXX6FopSktTE++cfr5AMdDlHcYGz30PKgYNA7icWa5jBpVAw+g/Gt6s3\nnOF2ujm0ZQKBgQCV8F/F6TyVCwsaAxMxgke3xd+vnhhJKsGs5Po2lJs+M4mF7JCb\nztibaUDOiYlJ5TGN5myeC/IWhzx2qM4XSUZh7HXzFlqQTxaR+meSPawVxd4IfIIa\nfTnEEHIODg4kTuidXFGahdlLzt1+pVFQoQ+tA5yq9E1yFQrdQct1oOfNMQKBgQCs\ncytUTX+4pWq0IrGqbMjBK7Fv3oFRYlNGzfowQborK73BO2QCz9aqJzgG14/CGq97\n8zhwhEGVFF6b85ChGYtt3rq4kUjRI2+yO6wejifu4y88l7QurUEapI13aeuh+hsR\nTscsHX6krLG5kjkjQ4SgcvFYYQBfE2cVlfSf+v0kIQKBgQDL5wUvZ1Nkiz1MQkVp\nxW5UY8l1yHM1VaSrweJfbf9csknH7JjlrI8i7oou47U0a0zs57pCVWzzq6iGc3jL\nomQMoEFlrlybDDNxFeG1UBb7NgTHfxOp7ubBvvoxTkQ+w5j3ztH/Np+8omD3scZp\nkWw1EIf0+4woFsAIrkG8cbONWA==\n-----END PRIVATE KEY-----\n",
  "client_email": "iserveustagingkey@iserveustaging.iam.gserviceaccount.com",
  "client_id": "106892979789221780004",
  "auth_uri": "https://accounts.google.com/o/oauth2/auth",
  "token_uri": "https://oauth2.googleapis.com/token",
  "auth_provider_x509_cert_url": "https://www.googleapis.com/oauth2/v1/certs",
  "client_x509_cert_url": "https://www.googleapis.com/robot/v1/metadata/x509/iserveustagingkey%40iserveustaging.iam.gserviceaccount.com"
}
